{
  "images" : [
    {
      "idiom" : "universal",
      "filename" : "rsz_7bf6e38acfe62e43f0b5c6f36bb8ab74.png",
      "scale" : "1x"
    },
    {
      "idiom" : "universal",
      "scale" : "2x"
    },
    {
      "idiom" : "universal",
      "scale" : "3x"
    }
  ],
  "info" : {
    "version" : 1,
    "author" : "xcode"
  }
}